%YAML 1.1
%TAG !u! tag:unity3d.com,2011:
--- !u!1045 &1
EditorBuildSettings:
  m_ObjectHideFlags: 0
  serializedVersion: 2
  m_Scenes:
  - enabled: 0
    path: Assets/Scenes/LoadScreen.unity
    guid: 34f57410ec5bdb545b5afa775e3f1d55
  - enabled: 0
    path: Assets/Scenes/SampleScene.unity
    guid: 9fc0d4010bbf28b4594072e72b8655ab
  - enabled: 1
    path: Assets/Scenes/newMP.unity
    guid: b4444d694cf05c04eb181b09989f3e7e
  - enabled: 0
    path: Assets/Photon/PhotonChat/Demos/DemoChat/DemoChat-Scene.unity
    guid: ec07267f6a28fb044ac89845274e79af
  m_configObjects: {}
