%YAML 1.1
%TAG !u! tag:unity3d.com,2011:
--- !u!114 &11400000
MonoBehaviour:
  m_ObjectHideFlags: 0
  m_CorrespondingSourceObject: {fileID: 0}
  m_PrefabInstance: {fileID: 0}
  m_PrefabAsset: {fileID: 0}
  m_GameObject: {fileID: 0}
  m_Enabled: 1
  m_EditorHideFlags: 0
  m_Script: {fileID: 11500000, guid: ba72233eb7c169743b9be02337eb06d6, type: 3}
  m_Name: TypeCatalogue
  m_EditorClassIdentifier: 
  catalogue:
    keys:
    - emotitron.TestPackObject
    vals:
    - hashcode: 1161234830446200393
      filepath: Assets/Photon/PhotonUtilities/PackObject/_GeneratedPackExtensions/Pack_TestPackObject.cs
      codegenFileWriteTime: 637541031060000000
      localFieldCount: 2
      totalFieldCount: 2
